<?xml version="1.0"?>
<font>
  <info face="Ipanema Secco " size="32" bold="0" italic="0" charset="" unicode="1" stretchH="100" smooth="1" aa="1" padding="0,0,0,0" spacing="1,1" outline="0"/>
  <common lineHeight="31" base="24" scaleW="256" scaleH="256" pages="1" packed="0" alphaChnl="1" redChnl="0" greenChnl="0" blueChnl="0"/>
  <pages>
    <page id="0" file="ipa_0.png" />
  </pages>
  <chars count="160">
    <char id="0" x="70" y="45" width="3" height="1" xoffset="-1" yoffset="30" xadvance="0" page="0" chnl="15" />
    <char id="13" x="74" y="45" width="3" height="1" xoffset="-1" yoffset="30" xadvance="16" page="0" chnl="15" />
    <char id="32" x="79" y="66" width="3" height="1" xoffset="-1" yoffset="30" xadvance="9" page="0" chnl="15" />
    <char id="33" x="136" y="106" width="5" height="18" xoffset="1" yoffset="5" xadvance="7" page="0" chnl="15" />
    <char id="34" x="28" y="161" width="10" height="6" xoffset="0" yoffset="7" xadvance="10" page="0" chnl="15" />
    <char id="35" x="142" y="104" width="20" height="17" xoffset="0" yoffset="7" xadvance="20" page="0" chnl="15" />
    <char id="36" x="123" y="125" width="9" height="16" xoffset="0" yoffset="8" xadvance="9" page="0" chnl="15" />
    <char id="37" x="161" y="64" width="16" height="19" xoffset="0" yoffset="5" xadvance="16" page="0" chnl="15" />
    <char id="38" x="61" y="145" width="14" height="14" xoffset="1" yoffset="10" xadvance="15" page="0" chnl="15" />
    <char id="39" x="48" y="160" width="4" height="6" xoffset="0" yoffset="7" xadvance="5" page="0" chnl="15" />
    <char id="40" x="127" y="106" width="8" height="18" xoffset="0" yoffset="8" xadvance="9" page="0" chnl="15" />
    <char id="41" x="0" y="108" width="8" height="19" xoffset="0" yoffset="8" xadvance="8" page="0" chnl="15" />
    <char id="42" x="39" y="160" width="8" height="6" xoffset="0" yoffset="10" xadvance="8" page="0" chnl="15" />
    <char id="43" x="208" y="138" width="12" height="11" xoffset="0" yoffset="9" xadvance="12" page="0" chnl="15" />
    <char id="44" x="9" y="161" width="5" height="7" xoffset="0" yoffset="20" xadvance="5" page="0" chnl="15" />
    <char id="45" x="67" y="160" width="10" height="4" xoffset="0" yoffset="14" xadvance="10" page="0" chnl="15" />
    <char id="46" x="85" y="160" width="5" height="4" xoffset="0" yoffset="20" xadvance="6" page="0" chnl="15" />
    <char id="47" x="195" y="84" width="12" height="19" xoffset="0" yoffset="5" xadvance="12" page="0" chnl="15" />
    <char id="48" x="77" y="88" width="14" height="19" xoffset="0" yoffset="5" xadvance="15" page="0" chnl="15" />
    <char id="49" x="9" y="108" width="8" height="19" xoffset="0" yoffset="5" xadvance="8" page="0" chnl="15" />
    <char id="50" x="194" y="64" width="15" height="19" xoffset="0" yoffset="5" xadvance="15" page="0" chnl="15" />
    <char id="51" x="152" y="84" width="14" height="19" xoffset="0" yoffset="5" xadvance="14" page="0" chnl="15" />
    <char id="52" x="226" y="64" width="15" height="19" xoffset="0" yoffset="5" xadvance="15" page="0" chnl="15" />
    <char id="53" x="231" y="0" width="13" height="21" xoffset="0" yoffset="3" xadvance="13" page="0" chnl="15" />
    <char id="54" x="123" y="43" width="13" height="20" xoffset="0" yoffset="4" xadvance="13" page="0" chnl="15" />
    <char id="55" x="227" y="22" width="16" height="20" xoffset="-1" yoffset="4" xadvance="15" page="0" chnl="15" />
    <char id="56" x="181" y="84" width="13" height="19" xoffset="0" yoffset="5" xadvance="13" page="0" chnl="15" />
    <char id="57" x="47" y="88" width="14" height="19" xoffset="-1" yoffset="5" xadvance="12" page="0" chnl="15" />
    <char id="58" x="173" y="138" width="5" height="13" xoffset="0" yoffset="11" xadvance="6" page="0" chnl="15" />
    <char id="59" x="167" y="138" width="5" height="13" xoffset="0" yoffset="12" xadvance="6" page="0" chnl="15" />
    <char id="60" x="0" y="161" width="8" height="8" xoffset="0" yoffset="9" xadvance="8" page="0" chnl="15" />
    <char id="61" x="193" y="138" width="14" height="11" xoffset="0" yoffset="7" xadvance="14" page="0" chnl="15" />
    <char id="62" x="245" y="137" width="8" height="8" xoffset="1" yoffset="9" xadvance="9" page="0" chnl="15" />
    <char id="63" x="203" y="43" width="10" height="20" xoffset="1" yoffset="7" xadvance="12" page="0" chnl="15" />
    <char id="64" x="0" y="146" width="15" height="14" xoffset="0" yoffset="10" xadvance="15" page="0" chnl="15" />
    <char id="65" x="68" y="68" width="18" height="19" xoffset="-1" yoffset="5" xadvance="17" page="0" chnl="15" />
    <char id="66" x="0" y="88" width="15" height="19" xoffset="0" yoffset="5" xadvance="14" page="0" chnl="15" />
    <char id="67" x="87" y="108" width="14" height="18" xoffset="0" yoffset="6" xadvance="15" page="0" chnl="15" />
    <char id="68" x="16" y="88" width="15" height="19" xoffset="0" yoffset="5" xadvance="16" page="0" chnl="15" />
    <char id="69" x="0" y="25" width="13" height="21" xoffset="0" yoffset="3" xadvance="14" page="0" chnl="15" />
    <char id="70" x="137" y="43" width="13" height="20" xoffset="0" yoffset="4" xadvance="13" page="0" chnl="15" />
    <char id="71" x="24" y="108" width="17" height="18" xoffset="1" yoffset="6" xadvance="18" page="0" chnl="15" />
    <char id="72" x="79" y="45" width="14" height="20" xoffset="2" yoffset="5" xadvance="17" page="0" chnl="15" />
    <char id="73" x="191" y="43" width="11" height="20" xoffset="1" yoffset="4" xadvance="13" page="0" chnl="15" />
    <char id="74" x="165" y="43" width="12" height="20" xoffset="0" yoffset="4" xadvance="12" page="0" chnl="15" />
    <char id="75" x="193" y="22" width="16" height="20" xoffset="0" yoffset="5" xadvance="16" page="0" chnl="15" />
    <char id="76" x="167" y="84" width="13" height="19" xoffset="2" yoffset="5" xadvance="15" page="0" chnl="15" />
    <char id="77" x="27" y="68" width="21" height="19" xoffset="0" yoffset="5" xadvance="21" page="0" chnl="15" />
    <char id="78" x="210" y="22" width="16" height="20" xoffset="1" yoffset="4" xadvance="17" page="0" chnl="15" />
    <char id="79" x="125" y="64" width="17" height="19" xoffset="0" yoffset="5" xadvance="16" page="0" chnl="15" />
    <char id="80" x="242" y="43" width="13" height="19" xoffset="0" yoffset="5" xadvance="13" page="0" chnl="15" />
    <char id="81" x="49" y="68" width="18" height="19" xoffset="0" yoffset="5" xadvance="18" page="0" chnl="15" />
    <char id="82" x="178" y="64" width="15" height="19" xoffset="0" yoffset="5" xadvance="15" page="0" chnl="15" />
    <char id="83" x="107" y="86" width="14" height="19" xoffset="1" yoffset="5" xadvance="15" page="0" chnl="15" />
    <char id="84" x="68" y="0" width="15" height="22" xoffset="-1" yoffset="2" xadvance="13" page="0" chnl="15" />
    <char id="85" x="87" y="66" width="18" height="19" xoffset="0" yoffset="5" xadvance="19" page="0" chnl="15" />
    <char id="86" x="143" y="64" width="17" height="19" xoffset="1" yoffset="5" xadvance="19" page="0" chnl="15" />
    <char id="87" x="0" y="68" width="26" height="19" xoffset="-2" yoffset="5" xadvance="22" page="0" chnl="15" />
    <char id="88" x="122" y="86" width="14" height="19" xoffset="0" yoffset="5" xadvance="14" page="0" chnl="15" />
    <char id="89" x="208" y="84" width="12" height="19" xoffset="0" yoffset="5" xadvance="12" page="0" chnl="15" />
    <char id="90" x="106" y="66" width="18" height="19" xoffset="-1" yoffset="5" xadvance="16" page="0" chnl="15" />
    <char id="91" x="234" y="84" width="9" height="19" xoffset="1" yoffset="5" xadvance="10" page="0" chnl="15" />
    <char id="92" x="242" y="63" width="13" height="19" xoffset="0" yoffset="5" xadvance="13" page="0" chnl="15" />
    <char id="93" x="244" y="83" width="9" height="19" xoffset="1" yoffset="5" xadvance="11" page="0" chnl="15" />
    <char id="94" x="15" y="161" width="12" height="6" xoffset="2" yoffset="5" xadvance="21" page="0" chnl="15" />
    <char id="95" x="142" y="122" width="17" height="1" xoffset="0" yoffset="28" xadvance="17" page="0" chnl="15" />
    <char id="96" x="105" y="158" width="4" height="2" xoffset="7" yoffset="7" xadvance="22" page="0" chnl="15" />
    <char id="97" x="207" y="122" width="14" height="15" xoffset="1" yoffset="9" xadvance="16" page="0" chnl="15" />
    <char id="98" x="109" y="43" width="13" height="20" xoffset="2" yoffset="4" xadvance="15" page="0" chnl="15" />
    <char id="99" x="140" y="141" width="11" height="14" xoffset="0" yoffset="10" xadvance="11" page="0" chnl="15" />
    <char id="100" x="64" y="47" width="14" height="20" xoffset="1" yoffset="4" xadvance="16" page="0" chnl="15" />
    <char id="101" x="16" y="146" width="14" height="14" xoffset="1" yoffset="10" xadvance="16" page="0" chnl="15" />
    <char id="102" x="95" y="23" width="10" height="21" xoffset="1" yoffset="4" xadvance="11" page="0" chnl="15" />
    <char id="103" x="56" y="25" width="13" height="21" xoffset="2" yoffset="10" xadvance="15" page="0" chnl="15" />
    <char id="104" x="0" y="47" width="15" height="20" xoffset="2" yoffset="4" xadvance="17" page="0" chnl="15" />
    <char id="105" x="133" y="125" width="5" height="16" xoffset="2" yoffset="8" xadvance="9" page="0" chnl="15" />
    <char id="106" x="59" y="0" width="8" height="23" xoffset="1" yoffset="8" xadvance="11" page="0" chnl="15" />
    <char id="107" x="222" y="122" width="13" height="15" xoffset="0" yoffset="9" xadvance="13" page="0" chnl="15" />
    <char id="108" x="236" y="43" width="5" height="20" xoffset="0" yoffset="4" xadvance="6" page="0" chnl="15" />
    <char id="109" x="163" y="122" width="22" height="15" xoffset="1" yoffset="9" xadvance="22" page="0" chnl="15" />
    <char id="110" x="236" y="122" width="15" height="14" xoffset="2" yoffset="10" xadvance="17" page="0" chnl="15" />
    <char id="111" x="46" y="145" width="14" height="14" xoffset="1" yoffset="10" xadvance="15" page="0" chnl="15" />
    <char id="112" x="28" y="25" width="13" height="21" xoffset="2" yoffset="10" xadvance="15" page="0" chnl="15" />
    <char id="113" x="202" y="0" width="14" height="21" xoffset="0" yoffset="10" xadvance="14" page="0" chnl="15" />
    <char id="114" x="128" y="142" width="11" height="14" xoffset="2" yoffset="10" xadvance="13" page="0" chnl="15" />
    <char id="115" x="116" y="143" width="11" height="14" xoffset="3" yoffset="10" xadvance="15" page="0" chnl="15" />
    <char id="116" x="245" y="0" width="10" height="21" xoffset="0" yoffset="3" xadvance="10" page="0" chnl="15" />
    <char id="117" x="31" y="145" width="14" height="14" xoffset="1" yoffset="10" xadvance="15" page="0" chnl="15" />
    <char id="118" x="76" y="145" width="13" height="14" xoffset="0" yoffset="10" xadvance="14" page="0" chnl="15" />
    <char id="119" x="186" y="122" width="20" height="15" xoffset="0" yoffset="10" xadvance="20" page="0" chnl="15" />
    <char id="120" x="104" y="143" width="11" height="14" xoffset="1" yoffset="10" xadvance="13" page="0" chnl="15" />
    <char id="121" x="70" y="23" width="12" height="21" xoffset="0" yoffset="10" xadvance="12" page="0" chnl="15" />
    <char id="122" x="90" y="145" width="13" height="14" xoffset="1" yoffset="10" xadvance="15" page="0" chnl="15" />
    <char id="126" x="53" y="160" width="13" height="5" xoffset="2" yoffset="14" xadvance="22" page="0" chnl="15" />
    <char id="161" x="18" y="108" width="5" height="19" xoffset="1" yoffset="5" xadvance="7" page="0" chnl="15" />
    <char id="162" x="221" y="84" width="12" height="19" xoffset="2" yoffset="8" xadvance="22" page="0" chnl="15" />
    <char id="168" x="91" y="160" width="8" height="2" xoffset="5" yoffset="7" xadvance="22" page="0" chnl="15" />
    <char id="169" x="183" y="104" width="18" height="17" xoffset="0" yoffset="6" xadvance="19" page="0" chnl="15" />
    <char id="171" x="233" y="138" width="11" height="8" xoffset="1" yoffset="10" xadvance="14" page="0" chnl="15" />
    <char id="174" x="163" y="104" width="19" height="17" xoffset="0" yoffset="6" xadvance="19" page="0" chnl="15" />
    <char id="176" x="78" y="160" width="6" height="4" xoffset="9" yoffset="6" xadvance="22" page="0" chnl="15" />
    <char id="177" x="179" y="138" width="13" height="12" xoffset="4" yoffset="12" xadvance="22" page="0" chnl="15" />
    <char id="180" x="100" y="160" width="4" height="2" xoffset="8" yoffset="7" xadvance="22" page="0" chnl="15" />
    <char id="183" x="110" y="158" width="4" height="2" xoffset="7" yoffset="15" xadvance="22" page="0" chnl="15" />
    <char id="191" x="116" y="106" width="10" height="18" xoffset="0" yoffset="9" xadvance="12" page="0" chnl="15" />
    <char id="192" x="159" y="22" width="16" height="20" xoffset="0" yoffset="4" xadvance="16" page="0" chnl="15" />
    <char id="193" x="186" y="0" width="15" height="21" xoffset="1" yoffset="4" xadvance="17" page="0" chnl="15" />
    <char id="194" x="170" y="0" width="15" height="21" xoffset="-1" yoffset="3" xadvance="15" page="0" chnl="15" />
    <char id="195" x="154" y="0" width="15" height="21" xoffset="0" yoffset="3" xadvance="15" page="0" chnl="15" />
    <char id="196" x="142" y="22" width="16" height="20" xoffset="2" yoffset="4" xadvance="22" page="0" chnl="15" />
    <char id="198" x="99" y="0" width="21" height="21" xoffset="1" yoffset="3" xadvance="31" page="0" chnl="15" />
    <char id="199" x="84" y="0" width="14" height="22" xoffset="1" yoffset="6" xadvance="22" page="0" chnl="15" />
    <char id="200" x="217" y="0" width="13" height="21" xoffset="0" yoffset="3" xadvance="14" page="0" chnl="15" />
    <char id="201" x="151" y="43" width="13" height="20" xoffset="0" yoffset="4" xadvance="14" page="0" chnl="15" />
    <char id="202" x="42" y="25" width="13" height="21" xoffset="1" yoffset="3" xadvance="14" page="0" chnl="15" />
    <char id="203" x="14" y="25" width="13" height="21" xoffset="0" yoffset="3" xadvance="13" page="0" chnl="15" />
    <char id="204" x="244" y="22" width="11" height="20" xoffset="0" yoffset="4" xadvance="11" page="0" chnl="15" />
    <char id="205" x="214" y="43" width="10" height="20" xoffset="0" yoffset="4" xadvance="11" page="0" chnl="15" />
    <char id="206" x="83" y="23" width="11" height="21" xoffset="0" yoffset="3" xadvance="11" page="0" chnl="15" />
    <char id="207" x="225" y="43" width="10" height="20" xoffset="1" yoffset="4" xadvance="12" page="0" chnl="15" />
    <char id="209" x="17" y="0" width="15" height="24" xoffset="0" yoffset="0" xadvance="16" page="0" chnl="15" />
    <char id="210" x="32" y="47" width="15" height="20" xoffset="0" yoffset="4" xadvance="15" page="0" chnl="15" />
    <char id="211" x="16" y="47" width="15" height="20" xoffset="1" yoffset="4" xadvance="16" page="0" chnl="15" />
    <char id="212" x="138" y="0" width="15" height="21" xoffset="1" yoffset="3" xadvance="17" page="0" chnl="15" />
    <char id="213" x="0" y="0" width="16" height="24" xoffset="1" yoffset="0" xadvance="17" page="0" chnl="15" />
    <char id="214" x="48" y="47" width="15" height="20" xoffset="1" yoffset="4" xadvance="17" page="0" chnl="15" />
    <char id="215" x="221" y="138" width="11" height="9" xoffset="2" yoffset="12" xadvance="15" page="0" chnl="15" />
    <char id="217" x="106" y="22" width="17" height="20" xoffset="0" yoffset="4" xadvance="17" page="0" chnl="15" />
    <char id="218" x="124" y="22" width="17" height="20" xoffset="0" yoffset="4" xadvance="18" page="0" chnl="15" />
    <char id="219" x="121" y="0" width="16" height="21" xoffset="0" yoffset="3" xadvance="15" page="0" chnl="15" />
    <char id="220" x="176" y="22" width="16" height="20" xoffset="0" yoffset="4" xadvance="16" page="0" chnl="15" />
    <char id="221" x="178" y="43" width="12" height="20" xoffset="0" yoffset="4" xadvance="12" page="0" chnl="15" />
    <char id="224" x="202" y="104" width="14" height="17" xoffset="0" yoffset="7" xadvance="14" page="0" chnl="15" />
    <char id="225" x="75" y="127" width="14" height="17" xoffset="-1" yoffset="7" xadvance="14" page="0" chnl="15" />
    <char id="226" x="137" y="84" width="14" height="19" xoffset="0" yoffset="5" xadvance="15" page="0" chnl="15" />
    <char id="227" x="94" y="45" width="14" height="20" xoffset="0" yoffset="4" xadvance="15" page="0" chnl="15" />
    <char id="228" x="102" y="106" width="13" height="18" xoffset="0" yoffset="6" xadvance="15" page="0" chnl="15" />
    <char id="230" x="139" y="125" width="23" height="15" xoffset="-1" yoffset="9" xadvance="21" page="0" chnl="15" />
    <char id="231" x="90" y="127" width="12" height="17" xoffset="0" yoffset="10" xadvance="14" page="0" chnl="15" />
    <char id="232" x="217" y="104" width="14" height="17" xoffset="-1" yoffset="7" xadvance="13" page="0" chnl="15" />
    <char id="233" x="15" y="128" width="14" height="17" xoffset="-1" yoffset="7" xadvance="12" page="0" chnl="15" />
    <char id="234" x="72" y="108" width="14" height="18" xoffset="-1" yoffset="6" xadvance="13" page="0" chnl="15" />
    <char id="235" x="232" y="104" width="14" height="17" xoffset="-1" yoffset="7" xadvance="13" page="0" chnl="15" />
    <char id="236" x="117" y="125" width="5" height="17" xoffset="1" yoffset="7" xadvance="8" page="0" chnl="15" />
    <char id="237" x="103" y="125" width="6" height="17" xoffset="0" yoffset="7" xadvance="7" page="0" chnl="15" />
    <char id="238" x="247" y="103" width="8" height="17" xoffset="1" yoffset="7" xadvance="10" page="0" chnl="15" />
    <char id="239" x="110" y="125" width="6" height="17" xoffset="1" yoffset="7" xadvance="8" page="0" chnl="15" />
    <char id="241" x="210" y="64" width="15" height="19" xoffset="0" yoffset="5" xadvance="15" page="0" chnl="15" />
    <char id="242" x="0" y="128" width="14" height="17" xoffset="1" yoffset="7" xadvance="15" page="0" chnl="15" />
    <char id="243" x="42" y="108" width="14" height="18" xoffset="0" yoffset="6" xadvance="14" page="0" chnl="15" />
    <char id="244" x="62" y="88" width="14" height="19" xoffset="1" yoffset="5" xadvance="16" page="0" chnl="15" />
    <char id="245" x="32" y="88" width="14" height="19" xoffset="0" yoffset="5" xadvance="15" page="0" chnl="15" />
    <char id="246" x="30" y="127" width="14" height="17" xoffset="0" yoffset="7" xadvance="15" page="0" chnl="15" />
    <char id="247" x="152" y="141" width="14" height="13" xoffset="1" yoffset="9" xadvance="14" page="0" chnl="15" />
    <char id="249" x="45" y="127" width="14" height="17" xoffset="1" yoffset="7" xadvance="16" page="0" chnl="15" />
    <char id="250" x="57" y="108" width="14" height="18" xoffset="1" yoffset="6" xadvance="15" page="0" chnl="15" />
    <char id="251" x="92" y="86" width="14" height="19" xoffset="1" yoffset="5" xadvance="15" page="0" chnl="15" />
    <char id="252" x="60" y="127" width="14" height="17" xoffset="0" yoffset="7" xadvance="15" page="0" chnl="15" />
    <char id="253" x="46" y="0" width="12" height="24" xoffset="0" yoffset="7" xadvance="12" page="0" chnl="15" />
    <char id="255" x="33" y="0" width="12" height="24" xoffset="1" yoffset="7" xadvance="13" page="0" chnl="15" />
  </chars>
  <kernings count="296">
    <kerning first="69" second="97" amount="-2" />
    <kerning first="69" second="101" amount="-3" />
    <kerning first="69" second="111" amount="-2" />
    <kerning first="69" second="115" amount="-3" />
    <kerning first="69" second="117" amount="-3" />
    <kerning first="70" second="117" amount="-4" />
    <kerning first="72" second="72" amount="-1" />
    <kerning first="72" second="97" amount="-2" />
    <kerning first="67" second="101" amount="-3" />
    <kerning first="73" second="110" amount="-3" />
    <kerning first="76" second="97" amount="-2" />
    <kerning first="76" second="105" amount="-2" />
    <kerning first="65" second="117" amount="-3" />
    <kerning first="76" second="117" amount="-2" />
    <kerning first="77" second="97" amount="-1" />
    <kerning first="77" second="101" amount="-1" />
    <kerning first="78" second="97" amount="-2" />
    <kerning first="65" second="111" amount="-2" />
    <kerning first="79" second="116" amount="2" />
    <kerning first="79" second="44" amount="-1" />
    <kerning first="80" second="104" amount="-2" />
    <kerning first="80" second="114" amount="-4" />
    <kerning first="81" second="117" amount="-2" />
    <kerning first="83" second="101" amount="-1" />
    <kerning first="84" second="111" amount="-2" />
    <kerning first="86" second="72" amount="-3" />
    <kerning first="86" second="65" amount="-4" />
    <kerning first="88" second="32" amount="5" />
    <kerning first="89" second="97" amount="-3" />
    <kerning first="97" second="32" amount="2" />
    <kerning first="97" second="97" amount="-2" />
    <kerning first="97" second="98" amount="-2" />
    <kerning first="97" second="99" amount="-1" />
    <kerning first="97" second="100" amount="-2" />
    <kerning first="97" second="101" amount="-4" />
    <kerning first="97" second="102" amount="-4" />
    <kerning first="97" second="103" amount="-2" />
    <kerning first="97" second="105" amount="-2" />
    <kerning first="97" second="106" amount="-4" />
    <kerning first="65" second="105" amount="-2" />
    <kerning first="97" second="109" amount="-2" />
    <kerning first="97" second="110" amount="-3" />
    <kerning first="97" second="111" amount="-2" />
    <kerning first="97" second="112" amount="-2" />
    <kerning first="97" second="114" amount="-3" />
    <kerning first="97" second="115" amount="-3" />
    <kerning first="65" second="101" amount="-3" />
    <kerning first="97" second="117" amount="-1" />
    <kerning first="65" second="97" amount="-3" />
    <kerning first="97" second="44" amount="-2" />
    <kerning first="68" second="117" amount="-2" />
    <kerning first="97" second="241" amount="-1" />
    <kerning first="98" second="101" amount="-3" />
    <kerning first="98" second="104" amount="-1" />
    <kerning first="68" second="111" amount="-1" />
    <kerning first="68" second="105" amount="-2" />
    <kerning first="98" second="114" amount="-3" />
    <kerning first="98" second="117" amount="-1" />
    <kerning first="99" second="97" amount="-2" />
    <kerning first="99" second="99" amount="1" />
    <kerning first="99" second="101" amount="-3" />
    <kerning first="68" second="101" amount="-3" />
    <kerning first="99" second="105" amount="-1" />
    <kerning first="99" second="108" amount="1" />
    <kerning first="99" second="111" amount="-2" />
    <kerning first="99" second="114" amount="-3" />
    <kerning first="99" second="116" amount="-2" />
    <kerning first="68" second="97" amount="-2" />
    <kerning first="100" second="97" amount="-3" />
    <kerning first="100" second="101" amount="-4" />
    <kerning first="100" second="105" amount="-2" />
    <kerning first="241" second="111" amount="-3" />
    <kerning first="100" second="109" amount="-2" />
    <kerning first="100" second="110" amount="-2" />
    <kerning first="100" second="111" amount="-3" />
    <kerning first="100" second="114" amount="-3" />
    <kerning first="100" second="117" amount="-2" />
    <kerning first="100" second="46" amount="-14" />
    <kerning first="101" second="97" amount="-2" />
    <kerning first="101" second="100" amount="-2" />
    <kerning first="101" second="101" amount="-2" />
    <kerning first="101" second="102" amount="-2" />
    <kerning first="101" second="103" amount="-2" />
    <kerning first="101" second="104" amount="-1" />
    <kerning first="101" second="105" amount="-1" />
    <kerning first="101" second="106" amount="-5" />
    <kerning first="101" second="110" amount="-1" />
    <kerning first="101" second="111" amount="-2" />
    <kerning first="101" second="112" amount="-3" />
    <kerning first="101" second="113" amount="-3" />
    <kerning first="101" second="114" amount="-2" />
    <kerning first="101" second="115" amount="-3" />
    <kerning first="101" second="116" amount="-2" />
    <kerning first="101" second="117" amount="-2" />
    <kerning first="101" second="118" amount="-1" />
    <kerning first="101" second="121" amount="-2" />
    <kerning first="241" second="97" amount="-2" />
    <kerning first="252" second="101" amount="-3" />
    <kerning first="102" second="97" amount="-4" />
    <kerning first="102" second="101" amount="-5" />
    <kerning first="102" second="102" amount="-2" />
    <kerning first="102" second="103" amount="-4" />
    <kerning first="102" second="105" amount="-2" />
    <kerning first="102" second="110" amount="-2" />
    <kerning first="102" second="111" amount="-3" />
    <kerning first="102" second="114" amount="-5" />
    <kerning first="102" second="117" amount="-2" />
    <kerning first="102" second="243" amount="-3" />
    <kerning first="103" second="101" amount="-3" />
    <kerning first="103" second="104" amount="-2" />
    <kerning first="103" second="111" amount="-2" />
    <kerning first="103" second="114" amount="-3" />
    <kerning first="46" second="65" amount="-5" />
    <kerning first="104" second="97" amount="-3" />
    <kerning first="104" second="105" amount="-1" />
    <kerning first="104" second="111" amount="-2" />
    <kerning first="104" second="117" amount="-3" />
    <kerning first="105" second="97" amount="-3" />
    <kerning first="105" second="98" amount="-3" />
    <kerning first="105" second="99" amount="-2" />
    <kerning first="105" second="100" amount="-4" />
    <kerning first="105" second="101" amount="-4" />
    <kerning first="105" second="102" amount="-6" />
    <kerning first="105" second="103" amount="-3" />
    <kerning first="105" second="105" amount="-3" />
    <kerning first="105" second="106" amount="-4" />
    <kerning first="105" second="108" amount="-2" />
    <kerning first="105" second="109" amount="-3" />
    <kerning first="105" second="110" amount="-2" />
    <kerning first="105" second="111" amount="-3" />
    <kerning first="105" second="112" amount="-3" />
    <kerning first="105" second="113" amount="-4" />
    <kerning first="105" second="114" amount="-5" />
    <kerning first="105" second="115" amount="-4" />
    <kerning first="105" second="116" amount="-2" />
    <kerning first="105" second="117" amount="-2" />
    <kerning first="105" second="118" amount="-3" />
    <kerning first="105" second="119" amount="-3" />
    <kerning first="105" second="122" amount="-3" />
    <kerning first="105" second="44" amount="-3" />
    <kerning first="105" second="46" amount="-2" />
    <kerning first="106" second="97" amount="-4" />
    <kerning first="106" second="101" amount="-5" />
    <kerning first="106" second="105" amount="-5" />
    <kerning first="106" second="107" amount="-3" />
    <kerning first="106" second="111" amount="-3" />
    <kerning first="107" second="105" amount="-1" />
    <kerning first="108" second="97" amount="-3" />
    <kerning first="108" second="100" amount="-3" />
    <kerning first="108" second="101" amount="-3" />
    <kerning first="108" second="102" amount="-1" />
    <kerning first="108" second="105" amount="-3" />
    <kerning first="108" second="109" amount="-2" />
    <kerning first="108" second="111" amount="-3" />
    <kerning first="108" second="112" amount="-3" />
    <kerning first="108" second="116" amount="-2" />
    <kerning first="46" second="68" amount="3" />
    <kerning first="109" second="97" amount="-3" />
    <kerning first="109" second="98" amount="-2" />
    <kerning first="109" second="100" amount="-3" />
    <kerning first="109" second="101" amount="-4" />
    <kerning first="109" second="105" amount="-2" />
    <kerning first="109" second="110" amount="-2" />
    <kerning first="109" second="111" amount="-3" />
    <kerning first="109" second="113" amount="-3" />
    <kerning first="109" second="116" amount="-5" />
    <kerning first="109" second="117" amount="-3" />
    <kerning first="109" second="44" amount="-1" />
    <kerning first="110" second="97" amount="-2" />
    <kerning first="110" second="98" amount="-3" />
    <kerning first="110" second="99" amount="-2" />
    <kerning first="110" second="100" amount="-4" />
    <kerning first="110" second="101" amount="-5" />
    <kerning first="110" second="103" amount="-3" />
    <kerning first="110" second="104" amount="-2" />
    <kerning first="110" second="105" amount="-2" />
    <kerning first="110" second="109" amount="-2" />
    <kerning first="110" second="110" amount="-3" />
    <kerning first="110" second="111" amount="-2" />
    <kerning first="110" second="112" amount="-3" />
    <kerning first="110" second="113" amount="-3" />
    <kerning first="110" second="115" amount="-3" />
    <kerning first="110" second="116" amount="-3" />
    <kerning first="110" second="117" amount="-3" />
    <kerning first="110" second="118" amount="-3" />
    <kerning first="110" second="121" amount="-4" />
    <kerning first="110" second="44" amount="-2" />
    <kerning first="46" second="86" amount="-3" />
    <kerning first="111" second="32" amount="2" />
    <kerning first="111" second="98" amount="-3" />
    <kerning first="111" second="100" amount="-2" />
    <kerning first="111" second="101" amount="-3" />
    <kerning first="111" second="102" amount="-2" />
    <kerning first="111" second="103" amount="-3" />
    <kerning first="111" second="104" amount="-2" />
    <kerning first="111" second="105" amount="-3" />
    <kerning first="46" second="81" amount="-5" />
    <kerning first="111" second="109" amount="-2" />
    <kerning first="111" second="110" amount="-3" />
    <kerning first="111" second="111" amount="-1" />
    <kerning first="111" second="114" amount="-2" />
    <kerning first="111" second="115" amount="-3" />
    <kerning first="46" second="78" amount="-7" />
    <kerning first="111" second="122" amount="-2" />
    <kerning first="111" second="44" amount="-2" />
    <kerning first="111" second="46" amount="-2" />
    <kerning first="112" second="97" amount="-2" />
    <kerning first="112" second="101" amount="-2" />
    <kerning first="112" second="104" amount="-3" />
    <kerning first="112" second="105" amount="-2" />
    <kerning first="112" second="108" amount="-1" />
    <kerning first="112" second="111" amount="-1" />
    <kerning first="112" second="113" amount="-1" />
    <kerning first="112" second="114" amount="-2" />
    <kerning first="112" second="115" amount="-3" />
    <kerning first="112" second="117" amount="-2" />
    <kerning first="113" second="117" amount="-1" />
    <kerning first="114" second="97" amount="-4" />
    <kerning first="114" second="99" amount="-2" />
    <kerning first="114" second="100" amount="-4" />
    <kerning first="114" second="101" amount="-4" />
    <kerning first="114" second="102" amount="-5" />
    <kerning first="114" second="103" amount="-3" />
    <kerning first="114" second="104" amount="-2" />
    <kerning first="114" second="105" amount="-2" />
    <kerning first="114" second="109" amount="-2" />
    <kerning first="114" second="110" amount="-1" />
    <kerning first="114" second="111" amount="-3" />
    <kerning first="114" second="112" amount="-3" />
    <kerning first="114" second="113" amount="-3" />
    <kerning first="114" second="114" amount="-4" />
    <kerning first="114" second="115" amount="-3" />
    <kerning first="114" second="117" amount="-2" />
    <kerning first="114" second="225" amount="-2" />
    <kerning first="114" second="44" amount="-5" />
    <kerning first="114" second="46" amount="-4" />
    <kerning first="115" second="32" amount="3" />
    <kerning first="115" second="97" amount="-2" />
    <kerning first="115" second="101" amount="-3" />
    <kerning first="115" second="105" amount="-3" />
    <kerning first="115" second="110" amount="-2" />
    <kerning first="115" second="111" amount="-2" />
    <kerning first="115" second="112" amount="-2" />
    <kerning first="115" second="113" amount="-3" />
    <kerning first="115" second="116" amount="-3" />
    <kerning first="115" second="117" amount="-2" />
    <kerning first="115" second="118" amount="-2" />
    <kerning first="46" second="77" amount="-6" />
    <kerning first="116" second="32" amount="2" />
    <kerning first="116" second="97" amount="-3" />
    <kerning first="116" second="101" amount="-4" />
    <kerning first="46" second="73" amount="-7" />
    <kerning first="116" second="111" amount="-2" />
    <kerning first="116" second="112" amount="-2" />
    <kerning first="116" second="114" amount="-2" />
    <kerning first="116" second="115" amount="-3" />
    <kerning first="116" second="116" amount="-3" />
    <kerning first="116" second="117" amount="-1" />
    <kerning first="116" second="44" amount="-1" />
    <kerning first="46" second="70" amount="-4" />
    <kerning first="117" second="97" amount="-1" />
    <kerning first="117" second="100" amount="-2" />
    <kerning first="117" second="101" amount="-3" />
    <kerning first="117" second="103" amount="-2" />
    <kerning first="117" second="105" amount="-1" />
    <kerning first="117" second="108" amount="1" />
    <kerning first="117" second="110" amount="-2" />
    <kerning first="117" second="114" amount="-3" />
    <kerning first="117" second="115" amount="-2" />
    <kerning first="117" second="116" amount="-1" />
    <kerning first="118" second="97" amount="-3" />
    <kerning first="118" second="101" amount="-3" />
    <kerning first="118" second="105" amount="-2" />
    <kerning first="118" second="110" amount="-3" />
    <kerning first="118" second="111" amount="-2" />
    <kerning first="119" second="105" amount="-1" />
    <kerning first="120" second="32" amount="4" />
    <kerning first="120" second="104" amount="-1" />
    <kerning first="120" second="105" amount="-2" />
    <kerning first="120" second="111" amount="-3" />
    <kerning first="121" second="97" amount="-4" />
    <kerning first="121" second="111" amount="-3" />
    <kerning first="121" second="115" amount="-4" />
    <kerning first="122" second="97" amount="-2" />
    <kerning first="122" second="105" amount="-3" />
    <kerning first="122" second="109" amount="-2" />
    <kerning first="225" second="115" amount="-3" />
    <kerning first="237" second="97" amount="-2" />
    <kerning first="237" second="115" amount="-3" />
    <kerning first="243" second="110" amount="-3" />
    <kerning first="44" second="118" amount="-2" />
    <kerning first="44" second="101" amount="-3" />
    <kerning first="44" second="102" amount="-2" />
    <kerning first="44" second="103" amount="-3" />
    <kerning first="44" second="117" amount="-2" />
    <kerning first="44" second="113" amount="-1" />
  </kernings>
</font>
